13:33:13		getFiles: null
13:33:21		getFiles: null
13:33:25		getFiles: null
13:33:30		getFiles: null
13:33:35		getFiles: null
13:33:36		getFiles: null
13:33:37		getFiles: null
13:33:38		getFiles: null
13:33:39		getFiles: null
13:33:39		getFiles: null
13:33:40		getFiles: null
13:33:41		getFiles: null
13:33:41		getFiles: null
13:33:42		getFiles: null
13:33:42		getFiles: null
13:33:43		getFiles: null
13:33:43		getFiles: null
13:33:44		getFiles: null
13:33:47		getFiles: null
13:33:48		getFiles: null
13:33:48		getFiles: null
13:33:48		getFiles: null
13:33:48		getFiles: null
13:33:48		getFiles: null
13:33:48		getFiles: null
13:33:48		getFiles: null
13:33:48		getFiles: null
13:33:48		getFiles: null
13:33:48		getFiles: null
13:33:48		getFiles: null
13:33:48		getFiles: null
13:33:48		getFiles: null
13:33:48		getFiles: null
13:33:48		getFiles: null
13:33:48		getFiles: null
13:33:48		getFiles: null
13:33:48		getFiles: null
13:33:48		getFiles: null
13:33:48		getFiles: null
13:33:48		getFiles: null
13:33:49		getFiles: null
13:33:49		getFiles: null
13:33:49		getFiles: null
13:33:49		getFiles: null
13:33:49		getFiles: null
13:33:49		getFiles: null
13:33:49		getFiles: null
13:33:49		getFiles: null
13:33:49		getFiles: null
13:33:49		getFiles: null
13:33:49		getFiles: null
13:33:49		getFiles: null
13:33:49		getFiles: null
13:33:49		getFiles: null
13:33:49		getFiles: null
13:33:49		getFiles: null
15:45:18		getFiles: null
16:01:29		getFiles: null
